[
    {
        "inputs": [
            {
                "internalType": "address",
                "name": "_platformOwner",
                "type": "address"
            }
        ],
        "stateMutability": "nonpayable",
        "type": "constructor"
    },
    {
        "anonymous": false,
        "inputs": [
            {
                "indexed": true,
                "internalType": "address",
                "name": "previousOwner",
                "type": "address"
            },
            {
                "indexed": true,
                "internalType": "address",
                "name": "newOwner",
                "type": "address"
            }
        ],
        "name": "OwnershipTransferred",
        "type": "event"
    },
    {
        "anonymous": false,
        "inputs": [
            {
                "indexed": true,
                "internalType": "uint16",
                "name": "newPercent",
                "type": "uint16"
            }
        ],
        "name": "PlatfromFeeChanged",
        "type": "event"
    },
    {
        "anonymous": false,
        "inputs": [
            {
                "indexed": true,
                "internalType": "address",
                "name": "service",
                "type": "address"
            },
            {
                "indexed": true,
                "internalType": "uint256",
                "name": "tariffIndex",
                "type": "uint256"
            }
        ],
        "name": "TariffChanged",
        "type": "event"
    },
    {
        "anonymous": false,
        "inputs": [
            {
                "indexed": true,
                "internalType": "address",
                "name": "service",
                "type": "address"
            },
            {
                "indexed": true,
                "internalType": "address",
                "name": "agent",
                "type": "address"
            },
            {
                "indexed": true,
                "internalType": "address",
                "name": "forUser",
                "type": "address"
            },
            {
                "indexed": false,
                "internalType": "uint256",
                "name": "tariffIndex",
                "type": "uint256"
            }
        ],
        "name": "TicketIssued",
        "type": "event"
    },
    {
        "anonymous": false,
        "inputs": [
            {
                "indexed": true,
                "internalType": "address",
                "name": "asset",
                "type": "address"
            },
            {
                "indexed": true,
                "internalType": "bool",
                "name": "state",
                "type": "bool"
            }
        ],
        "name": "WhitelistPaymentTokenChanged",
        "type": "event"
    },
    {
        "inputs": [

        ],
        "name": "PERCENT_DENOMINATOR",
        "outputs": [
            {
                "internalType": "uint256",
                "name": "",
                "type": "uint256"
            }
        ],
        "stateMutability": "view",
        "type": "function"
    },
    {
        "inputs": [
            {
                "internalType": "uint256",
                "name": "_tariffIndex",
                "type": "uint256"
            },
            {
                "internalType": "address",
                "name": "_paymentToken",
                "type": "address"
            },
            {
                "internalType": "uint256",
                "name": "_paymentAmount",
                "type": "uint256"
            },
            {
                "internalType": "uint16",
                "name": "_agentFeePercent",
                "type": "uint16"
            }
        ],
        "name": "addTariffPayOption",
        "outputs": [
            {
                "internalType": "uint256",
                "name": "",
                "type": "uint256"
            }
        ],
        "stateMutability": "nonpayable",
        "type": "function"
    },
    {
        "inputs": [
            {
                "internalType": "address",
                "name": "",
                "type": "address"
            },
            {
                "internalType": "address",
                "name": "",
                "type": "address"
            },
            {
                "internalType": "uint256",
                "name": "",
                "type": "uint256"
            }
        ],
        "name": "agentServiceRegistry",
        "outputs": [
            {
                "internalType": "uint256",
                "name": "",
                "type": "uint256"
            }
        ],
        "stateMutability": "view",
        "type": "function"
    },
    {
        "inputs": [
            {
                "internalType": "address",
                "name": "_agent",
                "type": "address"
            },
            {
                "internalType": "uint256[]",
                "name": "_serviceTariffIndexes",
                "type": "uint256[]"
            }
        ],
        "name": "authorizeAgentForService",
        "outputs": [
            {
                "internalType": "uint256[]",
                "name": "",
                "type": "uint256[]"
            }
        ],
        "stateMutability": "nonpayable",
        "type": "function"
    },
    {
        "inputs": [
            {
                "internalType": "address",
                "name": "",
                "type": "address"
            },
            {
                "internalType": "uint256",
                "name": "",
                "type": "uint256"
            }
        ],
        "name": "availableTariffs",
        "outputs": [
            {
                "components": [
                    {
                        "internalType": "uint256",
                        "name": "timelockPeriod",
                        "type": "uint256"
                    },
                    {
                        "internalType": "uint256",
                        "name": "ticketValidPeriod",
                        "type": "uint256"
                    },
                    {
                        "internalType": "uint256",
                        "name": "counter",
                        "type": "uint256"
                    },
                    {
                        "internalType": "bool",
                        "name": "isAvailable",
                        "type": "bool"
                    },
                    {
                        "internalType": "address",
                        "name": "beneficiary",
                        "type": "address"
                    }
                ],
                "internalType": "struct SubscriptionType",
                "name": "subscription",
                "type": "tuple"
            }
        ],
        "stateMutability": "view",
        "type": "function"
    },
    {
        "inputs": [
            {
                "internalType": "address",
                "name": "_service",
                "type": "address"
            },
            {
                "internalType": "uint256",
                "name": "_tariffIndex",
                "type": "uint256"
            },
            {
                "internalType": "uint256",
                "name": "_payWithIndex",
                "type": "uint256"
            },
            {
                "internalType": "address",
                "name": "_buyFor",
                "type": "address"
            },
            {
                "internalType": "address",
                "name": "_payer",
                "type": "address"
            }
        ],
        "name": "buySubscription",
        "outputs": [
            {
                "components": [
                    {
                        "internalType": "uint256",
                        "name": "validUntil",
                        "type": "uint256"
                    },
                    {
                        "internalType": "uint256",
                        "name": "countsLeft",
                        "type": "uint256"
                    }
                ],
                "internalType": "struct Ticket",
                "name": "ticket",
                "type": "tuple"
            }
        ],
        "stateMutability": "payable",
        "type": "function"
    },
    {
        "inputs": [
            {
                "internalType": "address",
                "name": "_user",
                "type": "address"
            }
        ],
        "name": "checkAndFixUserSubscription",
        "outputs": [
            {
                "internalType": "bool",
                "name": "ok",
                "type": "bool"
            }
        ],
        "stateMutability": "nonpayable",
        "type": "function"
    },
    {
        "inputs": [
            {
                "internalType": "address",
                "name": "_user",
                "type": "address"
            },
            {
                "internalType": "address",
                "name": "_service",
                "type": "address"
            }
        ],
        "name": "checkUserSubscription",
        "outputs": [
            {
                "internalType": "bool",
                "name": "ok",
                "type": "bool"
            },
            {
                "internalType": "bool",
                "name": "needFix",
                "type": "bool"
            }
        ],
        "stateMutability": "view",
        "type": "function"
    },
    {
        "inputs": [
            {
                "internalType": "uint256",
                "name": "_tariffIndex",
                "type": "uint256"
            },
            {
                "internalType": "uint256",
                "name": "_timelockPeriod",
                "type": "uint256"
            },
            {
                "internalType": "uint256",
                "name": "_ticketValidPeriod",
                "type": "uint256"
            },
            {
                "internalType": "uint256",
                "name": "_counter",
                "type": "uint256"
            },
            {
                "internalType": "bool",
                "name": "_isAvailable",
                "type": "bool"
            },
            {
                "internalType": "address",
                "name": "_beneficiary",
                "type": "address"
            }
        ],
        "name": "editServiceTariff",
        "outputs": [

        ],
        "stateMutability": "nonpayable",
        "type": "function"
    },
    {
        "inputs": [
            {
                "internalType": "uint256",
                "name": "_tariffIndex",
                "type": "uint256"
            },
            {
                "internalType": "uint256",
                "name": "_payWithIndex",
                "type": "uint256"
            },
            {
                "internalType": "address",
                "name": "_paymentToken",
                "type": "address"
            },
            {
                "internalType": "uint256",
                "name": "_paymentAmount",
                "type": "uint256"
            },
            {
                "internalType": "uint16",
                "name": "_agentFeePercent",
                "type": "uint16"
            }
        ],
        "name": "editTariffPayOption",
        "outputs": [

        ],
        "stateMutability": "nonpayable",
        "type": "function"
    },
    {
        "inputs": [
            {
                "internalType": "address",
                "name": "_user",
                "type": "address"
            },
            {
                "internalType": "address",
                "name": "_serviceFromProxy",
                "type": "address"
            }
        ],
        "name": "fixUserSubscription",
        "outputs": [

        ],
        "stateMutability": "nonpayable",
        "type": "function"
    },
    {
        "inputs": [
            {
                "internalType": "address",
                "name": "_agent",
                "type": "address"
            },
            {
                "internalType": "address",
                "name": "_service",
                "type": "address"
            }
        ],
        "name": "getAvailableAgentsTariffForService",
        "outputs": [
            {
                "internalType": "uint256[]",
                "name": "",
                "type": "uint256[]"
            },
            {
                "components": [
                    {
                        "components": [
                            {
                                "internalType": "uint256",
                                "name": "timelockPeriod",
                                "type": "uint256"
                            },
                            {
                                "internalType": "uint256",
                                "name": "ticketValidPeriod",
                                "type": "uint256"
                            },
                            {
                                "internalType": "uint256",
                                "name": "counter",
                                "type": "uint256"
                            },
                            {
                                "internalType": "bool",
                                "name": "isAvailable",
                                "type": "bool"
                            },
                            {
                                "internalType": "address",
                                "name": "beneficiary",
                                "type": "address"
                            }
                        ],
                        "internalType": "struct SubscriptionType",
                        "name": "subscription",
                        "type": "tuple"
                    },
                    {
                        "components": [
                            {
                                "internalType": "address",
                                "name": "paymentToken",
                                "type": "address"
                            },
                            {
                                "internalType": "uint256",
                                "name": "paymentAmount",
                                "type": "uint256"
                            },
                            {
                                "internalType": "uint16",
                                "name": "agentFeePercent",
                                "type": "uint16"
                            }
                        ],
                        "internalType": "struct PayOption[]",
                        "name": "payWith",
                        "type": "tuple[]"
                    }
                ],
                "internalType": "struct Tariff[]",
                "name": "",
                "type": "tuple[]"
            }
        ],
        "stateMutability": "view",
        "type": "function"
    },
    {
        "inputs": [
            {
                "internalType": "address",
                "name": "_service",
                "type": "address"
            }
        ],
        "name": "getTariffsForService",
        "outputs": [
            {
                "components": [
                    {
                        "components": [
                            {
                                "internalType": "uint256",
                                "name": "timelockPeriod",
                                "type": "uint256"
                            },
                            {
                                "internalType": "uint256",
                                "name": "ticketValidPeriod",
                                "type": "uint256"
                            },
                            {
                                "internalType": "uint256",
                                "name": "counter",
                                "type": "uint256"
                            },
                            {
                                "internalType": "bool",
                                "name": "isAvailable",
                                "type": "bool"
                            },
                            {
                                "internalType": "address",
                                "name": "beneficiary",
                                "type": "address"
                            }
                        ],
                        "internalType": "struct SubscriptionType",
                        "name": "subscription",
                        "type": "tuple"
                    },
                    {
                        "components": [
                            {
                                "internalType": "address",
                                "name": "paymentToken",
                                "type": "address"
                            },
                            {
                                "internalType": "uint256",
                                "name": "paymentAmount",
                                "type": "uint256"
                            },
                            {
                                "internalType": "uint16",
                                "name": "agentFeePercent",
                                "type": "uint16"
                            }
                        ],
                        "internalType": "struct PayOption[]",
                        "name": "payWith",
                        "type": "tuple[]"
                    }
                ],
                "internalType": "struct Tariff[]",
                "name": "",
                "type": "tuple[]"
            }
        ],
        "stateMutability": "view",
        "type": "function"
    },
    {
        "inputs": [
            {
                "internalType": "address",
                "name": "_service",
                "type": "address"
            },
            {
                "internalType": "uint256",
                "name": "_tariffIndex",
                "type": "uint256"
            },
            {
                "internalType": "uint256",
                "name": "_payWithIndex",
                "type": "uint256"
            }
        ],
        "name": "getTicketPrice",
        "outputs": [
            {
                "internalType": "address",
                "name": "",
                "type": "address"
            },
            {
                "internalType": "uint256",
                "name": "",
                "type": "uint256"
            }
        ],
        "stateMutability": "view",
        "type": "function"
    },
    {
        "inputs": [
            {
                "internalType": "address",
                "name": "_service",
                "type": "address"
            },
            {
                "internalType": "address",
                "name": "_user",
                "type": "address"
            }
        ],
        "name": "getUserTicketForService",
        "outputs": [
            {
                "components": [
                    {
                        "internalType": "uint256",
                        "name": "validUntil",
                        "type": "uint256"
                    },
                    {
                        "internalType": "uint256",
                        "name": "countsLeft",
                        "type": "uint256"
                    }
                ],
                "internalType": "struct Ticket",
                "name": "",
                "type": "tuple"
            }
        ],
        "stateMutability": "view",
        "type": "function"
    },
    {
        "inputs": [

        ],
        "name": "mainWrapper",
        "outputs": [
            {
                "internalType": "address",
                "name": "",
                "type": "address"
            }
        ],
        "stateMutability": "view",
        "type": "function"
    },
    {
        "inputs": [

        ],
        "name": "owner",
        "outputs": [
            {
                "internalType": "address",
                "name": "",
                "type": "address"
            }
        ],
        "stateMutability": "view",
        "type": "function"
    },
    {
        "inputs": [

        ],
        "name": "platformFeePercent",
        "outputs": [
            {
                "internalType": "uint16",
                "name": "",
                "type": "uint16"
            }
        ],
        "stateMutability": "view",
        "type": "function"
    },
    {
        "inputs": [

        ],
        "name": "platformOwner",
        "outputs": [
            {
                "internalType": "address",
                "name": "",
                "type": "address"
            }
        ],
        "stateMutability": "view",
        "type": "function"
    },
    {
        "inputs": [

        ],
        "name": "previousRegistry",
        "outputs": [
            {
                "internalType": "address",
                "name": "",
                "type": "address"
            }
        ],
        "stateMutability": "view",
        "type": "function"
    },
    {
        "inputs": [

        ],
        "name": "proxyRegistry",
        "outputs": [
            {
                "internalType": "address",
                "name": "",
                "type": "address"
            }
        ],
        "stateMutability": "view",
        "type": "function"
    },
    {
        "inputs": [
            {
                "components": [
                    {
                        "components": [
                            {
                                "internalType": "uint256",
                                "name": "timelockPeriod",
                                "type": "uint256"
                            },
                            {
                                "internalType": "uint256",
                                "name": "ticketValidPeriod",
                                "type": "uint256"
                            },
                            {
                                "internalType": "uint256",
                                "name": "counter",
                                "type": "uint256"
                            },
                            {
                                "internalType": "bool",
                                "name": "isAvailable",
                                "type": "bool"
                            },
                            {
                                "internalType": "address",
                                "name": "beneficiary",
                                "type": "address"
                            }
                        ],
                        "internalType": "struct SubscriptionType",
                        "name": "subscription",
                        "type": "tuple"
                    },
                    {
                        "components": [
                            {
                                "internalType": "address",
                                "name": "paymentToken",
                                "type": "address"
                            },
                            {
                                "internalType": "uint256",
                                "name": "paymentAmount",
                                "type": "uint256"
                            },
                            {
                                "internalType": "uint16",
                                "name": "agentFeePercent",
                                "type": "uint16"
                            }
                        ],
                        "internalType": "struct PayOption[]",
                        "name": "payWith",
                        "type": "tuple[]"
                    }
                ],
                "internalType": "struct Tariff",
                "name": "_newTariff",
                "type": "tuple"
            }
        ],
        "name": "registerServiceTariff",
        "outputs": [
            {
                "internalType": "uint256",
                "name": "",
                "type": "uint256"
            }
        ],
        "stateMutability": "nonpayable",
        "type": "function"
    },
    {
        "inputs": [

        ],
        "name": "renounceOwnership",
        "outputs": [

        ],
        "stateMutability": "nonpayable",
        "type": "function"
    },
    {
        "inputs": [
            {
                "internalType": "address",
                "name": "_asset",
                "type": "address"
            },
            {
                "internalType": "bool",
                "name": "_isEnable",
                "type": "bool"
            }
        ],
        "name": "setAssetForPaymentState",
        "outputs": [

        ],
        "stateMutability": "nonpayable",
        "type": "function"
    },
    {
        "inputs": [
            {
                "internalType": "address",
                "name": "_wrapper",
                "type": "address"
            }
        ],
        "name": "setMainWrapper",
        "outputs": [

        ],
        "stateMutability": "nonpayable",
        "type": "function"
    },
    {
        "inputs": [
            {
                "internalType": "uint16",
                "name": "_newPercent",
                "type": "uint16"
            }
        ],
        "name": "setPlatformFeePercent",
        "outputs": [

        ],
        "stateMutability": "nonpayable",
        "type": "function"
    },
    {
        "inputs": [
            {
                "internalType": "address",
                "name": "_newOwner",
                "type": "address"
            }
        ],
        "name": "setPlatformOwner",
        "outputs": [

        ],
        "stateMutability": "nonpayable",
        "type": "function"
    },
    {
        "inputs": [
            {
                "internalType": "address",
                "name": "_registry",
                "type": "address"
            }
        ],
        "name": "setPreviousRegistry",
        "outputs": [

        ],
        "stateMutability": "nonpayable",
        "type": "function"
    },
    {
        "inputs": [
            {
                "internalType": "address",
                "name": "_registry",
                "type": "address"
            }
        ],
        "name": "setProxyRegistry",
        "outputs": [

        ],
        "stateMutability": "nonpayable",
        "type": "function"
    },
    {
        "inputs": [
            {
                "internalType": "address",
                "name": "newOwner",
                "type": "address"
            }
        ],
        "name": "transferOwnership",
        "outputs": [

        ],
        "stateMutability": "nonpayable",
        "type": "function"
    },
    {
        "inputs": [
            {
                "internalType": "address",
                "name": "",
                "type": "address"
            },
            {
                "internalType": "address",
                "name": "",
                "type": "address"
            }
        ],
        "name": "userTickets",
        "outputs": [
            {
                "internalType": "uint256",
                "name": "validUntil",
                "type": "uint256"
            },
            {
                "internalType": "uint256",
                "name": "countsLeft",
                "type": "uint256"
            }
        ],
        "stateMutability": "view",
        "type": "function"
    },
    {
        "inputs": [
            {
                "internalType": "address",
                "name": "",
                "type": "address"
            }
        ],
        "name": "whiteListedForPayments",
        "outputs": [
            {
                "internalType": "bool",
                "name": "",
                "type": "bool"
            }
        ],
        "stateMutability": "view",
        "type": "function"
    }
]